*** Life<ConwayCell> 3x1 ***

Generation = 0, Population = 2.
.
*
*

*** Life<ConwayCell> 12x16 ***

Generation = 0, Population = 59.
*.........*.....
.*..*.*......*.*
....*....*......
.......*....***.
.*..**...**..*.*
**.*..*..*..*..*
.*.*...**.*.....
....*...**.*....
*..**...*....**.
*..*.*.......*..
....*.*..*....**
**.***..*.**....

Generation = 25, Population = 19.
................
................
................
................
.*..............
*.*.............
*.*...*..*......
.*...*...**.....
.....*...*......
.....*..........
......**....***.
................

*** Life<ConwayCell> 1x2 ***

Generation = 0, Population = 2.
**

*** Life<ConwayCell> 16x15 ***

Generation = 0, Population = 2.
...............
...............
...............
...............
........*......
...............
...............
...............
...............
...............
...............
...............
...............
...............
......*........
...............

Generation = 23, Population = 0.
...............
...............
...............
...............
...............
...............
...............
...............
...............
...............
...............
...............
...............
...............
...............
...............

Generation = 46, Population = 0.
...............
...............
...............
...............
...............
...............
...............
...............
...............
...............
...............
...............
...............
...............
...............
...............

*** Life<ConwayCell> 14x16 ***

Generation = 0, Population = 76.
..**..**.**.*...
..*.*.*.....*.*.
*.*....*.*.*....
.*.*......*.*...
....***..**...*.
*.*.*......*.*.*
..*.*..**.*..*.*
..*.*.*.**..*.*.
*....*...**.***.
.*.*...****..*.*
..*......*..*...
.*.......**...*.
.*.......*......
**.....*..*....*

*** Life<ConwayCell> 9x5 ***

Generation = 0, Population = 5.
.....
..*..
.....
..*..
*....
.....
....*
..*..
.....

*** Life<ConwayCell> 8x15 ***

Generation = 0, Population = 45.
**.*....**....*
.........*.****
..*.***..**.**.
.....*.**....*.
*...*.*.*.****.
..*..**.....*..
**...*.**....**
.*.*........*..

Generation = 38, Population = 0.
...............
...............
...............
...............
...............
...............
...............
...............

*** Life<ConwayCell> 3x3 ***

Generation = 0, Population = 4.
...
*.*
.**

*** Life<ConwayCell> 1x7 ***

Generation = 0, Population = 4.
.*.**.*

*** Life<ConwayCell> 1x5 ***

Generation = 0, Population = 4.
.****

Generation = 2, Population = 0.
.....

Generation = 4, Population = 0.
.....

Generation = 6, Population = 0.
.....

Generation = 8, Population = 0.
.....

Generation = 10, Population = 0.
.....

Generation = 12, Population = 0.
.....

Generation = 14, Population = 0.
.....

Generation = 16, Population = 0.
.....

Generation = 18, Population = 0.
.....

Generation = 20, Population = 0.
.....

Generation = 22, Population = 0.
.....

Generation = 24, Population = 0.
.....

Generation = 26, Population = 0.
.....

Generation = 28, Population = 0.
.....

Generation = 30, Population = 0.
.....

Generation = 32, Population = 0.
.....

Generation = 34, Population = 0.
.....

Generation = 36, Population = 0.
.....

Generation = 38, Population = 0.
.....

Generation = 40, Population = 0.
.....

Generation = 42, Population = 0.
.....

Generation = 44, Population = 0.
.....

Generation = 46, Population = 0.
.....

Generation = 48, Population = 0.
.....

Generation = 50, Population = 0.
.....

Generation = 52, Population = 0.
.....

Generation = 54, Population = 0.
.....

Generation = 56, Population = 0.
.....

Generation = 58, Population = 0.
.....

Generation = 60, Population = 0.
.....

*** Life<ConwayCell> 20x17 ***

Generation = 0, Population = 70.
..*..**........*.
......*...*.....*
.........*....*..
*......*.....*...
....***..*......*
.......*....*...*
*.......*.**.....
.*..**.**........
.*.......*..*....
.**.....*....*...
*......*.*....*..
.....*.*..*......
....*...*...*....
.....*...*...*...
*......*.........
...*.*.*......*.*
....*.....*...*.*
..*..............
*..*......*......
...**.....**.*.*.

*** Life<ConwayCell> 17x9 ***

Generation = 0, Population = 44.
***...*.*
..*..*...
.....*.**
......*..
.....*.**
.........
....**.*.
.*..*....
*..*..*..
.*....***
*.*.....*
.*.*..*..
..*....**
....*....
**.*....*
.**.....*
.*.......

*** Life<ConwayCell> 15x9 ***

Generation = 0, Population = 64.
*...**.*.
.*..*..*.
*...***..
.**.***.*
*..*...*.
.*..*...*
*.*.*.*.*
*..*..*..
.**..***.
***..****
...****.*
*.*.**...
**.....*.
**....*.*
.*.*.**.*

Generation = 2, Population = 50.
....***..
*******..
...*.....
*.**...*.
...******
*.*.***.*
*.*......
.**..*...
...**....
.......**
*......**
.......**
.*...*..*
..*.*....
.*...***.

Generation = 4, Population = 33.
.**......
*.*...**.
..*..*...
.....*.**
........*
.*.*...*.
..*..*...
....*....
.**.*....
...*...*.
......*..
......*..
......***
.....*.**
.....**..

Generation = 6, Population = 34.
.***.....
...*.....
..*..*..*
.....**.*
......*.*
..*......
....**...
.*...*...
....**...
..**.....
.....***.
.....*...
....**.*.
....**..*
.....***.

Generation = 8, Population = 29.
..***....
......*..
...*...*.
.........
....*..*.
.........
....***..
......*..
..****...
..*...*..
....***..
.....**..
.........
.....***.
.....***.

Generation = 10, Population = 25.
...*.....
...*.....
.........
.........
.........
......*..
......**.
...*...*.
..***.**.
..*...**.
...*..**.
.....***.
.....*.*.
.......**
.........

Generation = 12, Population = 28.
.........
.........
.........
.........
.........
......**.
...**...*
..*.....*
.**....**
....**.**
...***.**
....**...
....**..*
......**.
.......*.

Generation = 14, Population = 19.
.........
.........
.........
.........
.........
.........
..*....**
.*.....*.
...*.....
.*..*.**.
......***
......*..
.....*...
.....*..*
.....*..*

Generation = 16, Population = 13.
.........
.........
.........
.........
.........
.........
.......**
.........
.....*...
.....**.*
.........
.....***.
.......*.
....*.*..
.....*...

*** Life<ConwayCell> 11x14 ***

Generation = 0, Population = 7.
..............
.......*......
..........*..*
..............
*.............
..............
..............
*.............
..............
.*............
...*..........

*** Life<ConwayCell> 6x13 ***

Generation = 0, Population = 49.
.******.**.*.
*..*.*..***..
.****..****.*
********.*...
.....****.***
**..*****.*.*

Generation = 3, Population = 8.
.**...**.....
.**...**.....
.............
.............
.............
.............

Generation = 6, Population = 8.
.**...**.....
.**...**.....
.............
.............
.............
.............

Generation = 9, Population = 8.
.**...**.....
.**...**.....
.............
.............
.............
.............

Generation = 12, Population = 8.
.**...**.....
.**...**.....
.............
.............
.............
.............

Generation = 15, Population = 8.
.**...**.....
.**...**.....
.............
.............
.............
.............

Generation = 18, Population = 8.
.**...**.....
.**...**.....
.............
.............
.............
.............

Generation = 21, Population = 8.
.**...**.....
.**...**.....
.............
.............
.............
.............

*** Life<ConwayCell> 15x20 ***

Generation = 0, Population = 39.
*.*..*.*............
................*...
....................
.*.....*...*........
......*...**.......*
*....*......*.......
..*.*..........*..*.
...*.*.............*
.......*...**.....*.
...**.*......*.*....
....................
....................
........*........*..
....*.*....*...*..*.
........*...........

*** Life<ConwayCell> 13x19 ***

Generation = 0, Population = 72.
..*........*..*.*..
*..*..**....*..**..
..*...*..*.*.......
...**.*.*.**..*..*.
..**.*.*....*.**...
.*......*.....****.
.**.*....*..**.*...
.**.**.*.**.*..*...
*..*......*....*...
..*....*.........*.
.*.........*..*...*
..*..*..*..*.*.....
.*.*.*.*...........

*** Life<ConwayCell> 1x8 ***

Generation = 0, Population = 7.
*****.**

Generation = 43, Population = 0.
........

*** Life<ConwayCell> 18x4 ***

Generation = 0, Population = 44.
*.**
*.**
****
....
*.*.
**..
.*..
.***
*..*
**..
****
*.*.
.***
.***
**.*
.**.
.*.*
*.**

Generation = 28, Population = 13.
.**.
.**.
....
....
....
....
....
....
....
..*.
.*.*
.**.
....
....
....
..*.
.*.*
..*.

*** Life<ConwayCell> 17x9 ***

Generation = 0, Population = 23.
......*..
.....*...
.....*...
....*...*
**.......
*........
..*......
..*.....*
...***...
.........
...*.*...
.........
......**.
...**....
......*..
.*....*..
.........

Generation = 24, Population = 27.
.....*...
....*.*..
....*.*..
.....*...
.........
.........
.........
.........
.........
....**...
.*..*.**.
.*.*.....
...*.***.
.*...**..
*....*...
.**..*...
...*.....

*** Life<ConwayCell> 8x8 ***

Generation = 0, Population = 6.
..**...*
.......*
........
*.......
........
...*....
........
........

Generation = 40, Population = 0.
........
........
........
........
........
........
........
........

*** Life<ConwayCell> 4x20 ***

Generation = 0, Population = 40.
...***.*..**.*.*...*
*.***.*.*.....**.*..
....**.**.*.***.*.**
.***....***.*.**..**

Generation = 42, Population = 3.
....................
....................
..............***...
....................

Generation = 84, Population = 3.
....................
....................
..............***...
....................

*** Life<ConwayCell> 7x5 ***

Generation = 0, Population = 22.
***.*
***..
*.***
**.**
...**
...*.
***.*

Generation = 21, Population = 0.
.....
.....
.....
.....
.....
.....
.....

Generation = 42, Population = 0.
.....
.....
.....
.....
.....
.....
.....

Generation = 63, Population = 0.
.....
.....
.....
.....
.....
.....
.....

Generation = 84, Population = 0.
.....
.....
.....
.....
.....
.....
.....

*** Life<ConwayCell> 16x15 ***

Generation = 0, Population = 9.
.....*.........
...............
...............
...............
...............
...............
..........*....
...............
...........*...
...............
...*...........
.............*.
.*.............
...............
...............
......*...*.*..

*** Life<ConwayCell> 1x3 ***

Generation = 0, Population = 2.
**.

Generation = 1, Population = 0.
...

Generation = 2, Population = 0.
...

Generation = 3, Population = 0.
...

Generation = 4, Population = 0.
...

Generation = 5, Population = 0.
...

Generation = 6, Population = 0.
...

Generation = 7, Population = 0.
...

Generation = 8, Population = 0.
...

Generation = 9, Population = 0.
...

Generation = 10, Population = 0.
...

Generation = 11, Population = 0.
...

Generation = 12, Population = 0.
...

Generation = 13, Population = 0.
...

Generation = 14, Population = 0.
...

Generation = 15, Population = 0.
...

Generation = 16, Population = 0.
...

Generation = 17, Population = 0.
...

Generation = 18, Population = 0.
...

Generation = 19, Population = 0.
...

Generation = 20, Population = 0.
...

Generation = 21, Population = 0.
...

Generation = 22, Population = 0.
...

Generation = 23, Population = 0.
...

Generation = 24, Population = 0.
...

Generation = 25, Population = 0.
...

Generation = 26, Population = 0.
...

Generation = 27, Population = 0.
...

Generation = 28, Population = 0.
...

Generation = 29, Population = 0.
...

*** Life<ConwayCell> 1x17 ***

Generation = 0, Population = 12.
.*.****.**.*****.

Generation = 11, Population = 0.
.................

Generation = 22, Population = 0.
.................

Generation = 33, Population = 0.
.................

Generation = 44, Population = 0.
.................

Generation = 55, Population = 0.
.................

Generation = 66, Population = 0.
.................

Generation = 77, Population = 0.
.................

*** Life<ConwayCell> 4x19 ***

Generation = 0, Population = 13.
.....*.......*.....
*....*........***..
...**...........**.
.*..........*......

Generation = 19, Population = 0.
...................
...................
...................
...................

*** Life<ConwayCell> 18x7 ***

Generation = 0, Population = 4.
*......
.......
.......
.......
..*....
*......
.......
.......
.......
.......
.......
.......
...*...
.......
.......
.......
.......
.......

*** Life<ConwayCell> 6x12 ***

Generation = 0, Population = 43.
.******.****
**...*.****.
**.....****.
.*...***.*.*
.****.***..*
.*.***....**

Generation = 29, Population = 0.
............
............
............
............
............
............

Generation = 58, Population = 0.
............
............
............
............
............
............

*** Life<ConwayCell> 6x17 ***

Generation = 0, Population = 37.
..*.....*..*..**.
.***.*..*.*.***..
*..*.*....***.*..
*...*.****.*.....
.*....*...**..*..
*........*....**.
